digraph heap {
    edge [color = "red"];

    subgraph cluster_0 {
        style = filled;
        color = lightgrey;
        node [style = filled, color = white];
        edge [color = "black"];

        1;
        2;
        3;
        4;
        5;
        6;
        7;

        1 -> 2;
        1 -> 3;
        2 -> 4;
        2 -> 5;
        3 -> 6;
        3 -> 7;
    }

    subgraph cluster_1 {
        style = filled;
        color = lightgrey;
        node [style = filled, color = white];
        edge [color = "black"];

        8;
        9;
        10;
        11;
        12;
        13;
        14;
        15;

        8 -> 10;
        10 -> 12;
        10 -> 13;
        9 -> 11;
        11 -> 14;
        11 -> 15;
    }

    4 -> 8;
    4 -> 9;

    subgraph cluster_2 {
        style = filled;
        color = lightgrey;
        node [style = filled, color = white];
        edge [color = "black"];

        16;
        17;
        18;
        19;
        20;
        21;
        22;
        23;

        16 -> 18;
        18 -> 20;
        18 -> 21;
        17 -> 19;
        19 -> 22;
        19 -> 23;
    }

    5 -> 16;
    5 -> 17;

    subgraph cluster_3 {
        style = filled;
        color = lightgrey;
        node [style = filled, color = white];
        edge [color = "black"];

        24;
        25;
        26;
        27;
        28;
        29;
        30;
        31;

        24 -> 26;
        26 -> 28;
        26 -> 29;
        25 -> 27;
        27 -> 30;
        27 -> 31;
    }

    6 -> 24;
    6 -> 25;

    subgraph cluster_4 {
        style = filled;
        color = lightgrey;
        node [style = filled, color = white];
        edge [color = "black"];

        32;
        33;
        34;
        35;
        36;
        37;
        38;
        39;

        32 -> 34;
        34 -> 36;
        34 -> 37;
        33 -> 35;
        35 -> 38;
        35 -> 39;
    }

    7 -> 32;
    7 -> 33;

    subgraph cluster_5 {
        style = filled;
        color = lightgrey;
        node [style = filled, color = white];
        edge [color = "black"];

        40;
        41;
        42;
        43;
        44;
        45;
        46;
        47;

        40 -> 42;
        42 -> 44;
        42 -> 45;
        41 -> 43;
        43 -> 46;
        43 -> 47;
    }

    12 -> 40;
    12 -> 41;
}
